%!PS-Adobe-3.0 EPSF-3.0
%%BoundingBox: 0 0 504 360
%%Title: Graphics produced by IDL
%%For: sjaeggli@atrcl72.IfA.Hawaii.edu, 
%%      /Users/sjaeggli/DL-NIRSP/lines/coronal_intensities
%%Creator: IDL Version 8.5, Mac OS X (darwin x86_64 m64)
%%CreationDate: Wed Apr 25 11:08:16 2018
%%DocumentData: Clean7bit
%%Requirements: color
%%LanguageLevel: 1
%%PageOrder: Ascend
%%Pages: (atend)
%%DocumentNeededResources: (atend)
%%EndComments
%%BeginProlog
%+ prolog.ps -- Prolog for IDL generated PostScript files
%+ Copyright (c) 1988-2015 Exelis Visual Information Solutions, Inc. All Rights Reserved.
%v 5
/$IDL_DICT 40 dict def $IDL_DICT begin /bdef { bind def } bind def /C
{currentpoint newpath moveto} bdef /CP {currentpoint} bdef /D {currentpoint
stroke moveto} bdef /F {closepath fill} bdef /K { setgray } bdef /M {moveto}
bdef /N {rmoveto} bdef /P {lineto} bdef /R {rlineto} bdef /S {gsave show
grestore} bdef /X {currentpoint pop} bdef /Z {gsave currentpoint lineto 20
setlinewidth 1 setlinecap stroke grestore} bdef /L0 {[] 0 setdash} bdef /L1
{[40 100] 0 setdash} bdef /L2 {[200 200] 0 setdash} bdef /L3 {[200 100 50
100] 0 setdash} bdef /L4 {[300 100 50 100 50 100 50 100] 0 setdash} bdef /L5
{[400 200] 0 setdash} bdef /STDFONT { findfont exch scalefont setfont } bdef
/ISOFONT { findfont dup length dict begin { 1 index /FID ne {def} {pop pop}
ifelse } forall /Encoding ISOLatin1Encoding def currentdict end /idltmpfont
exch definefont exch scalefont setfont } bdef /ISOBULLET { gsave /Helvetica
findfont exch scalefont setfont (\267) show currentpoint grestore moveto}
bdef /MITERLIMIT { 2.5 setmiterlimit } bdef end
%%EndProlog
%%Page: 0 1
%%PageRequirements: color
%%PageResources: (atend)
%%PageOrientation: Portrait
%%PageBoundingBox: 0 0 504 360
%%BeginPageSetup
$IDL_DICT begin 0.0283465 dup scale MITERLIMIT
%%IncludeResource: font Helvetica
423.333 /Helvetica STDFONT
%%EndPageSetup
20 setlinewidth L0 0.000 0.000 0.000 setrgbcolor 7615 12514 M 0 -307 R D
7615 12514 M 190 0 R D 7615 12368 M 117 0 R D 7863 12324 M 176 0 R 0 29 R
-15 30 R -15 14 R -29 15 R -44 0 R -29 -15 R -29 -29 R -15 -44 R 0 -29 R
15 -44 R 29 -29 R 29 -15 R 44 0 R 29 15 R 30 29 R D 8360 12514 M 204 -307 R
D 8564 12514 M -204 -307 R D 8667 12514 M 0 -307 R D 8783 12514 M 0 -307 R D
8900 12514 M 0 -307 R D 9280 12456 M 29 14 R 44 44 R 0 -307 R D 9616 12514 M
-44 -15 R -29 -43 R -15 -73 R 0 -44 R 15 -73 R 29 -44 R 44 -15 R 29 0 R
44 15 R 29 44 R 15 73 R 0 44 R -15 73 R -29 43 R -44 15 R -29 0 R D
10025 12514 M -146 -307 R D 9820 12514 M 205 0 R D 10259 12514 M -146 -204 R
219 0 R D 10259 12514 M 0 -307 R D 10434 12236 M -15 -14 R 15 -15 R 14 15 R
-14 14 R D 10755 12514 M -146 -307 R D 10551 12514 M 204 0 R D 11091 12412 M
0 -205 R D 11091 12353 M 44 44 R 29 15 R 44 0 R 29 -15 R 15 -44 R 0 -146 R D
11369 12412 M 0 -205 R D 11369 12353 M 43 44 R 30 15 R 43 0 R 30 -15 R
14 -44 R 0 -146 R D 11529 12353 M 44 44 R 29 15 R 44 0 R 29 -15 R 15 -44 R
0 -146 R D 2220 1408 M 14894 0 R D 2793 1408 M 0 212 R D 2559 1079 M 24 11 R
35 35 R 0 -245 R D 2781 903 M -11 -11 R 11 -12 R 12 12 R -12 11 R D
2945 1125 M -35 -11 R -24 -35 R -11 -59 R 0 -35 R 11 -58 R 24 -35 R 35 -12 R
23 0 R 35 12 R 24 35 R 11 58 R 0 35 R -11 59 R -24 35 R -35 11 R -23 0 R D
5657 1408 M 0 212 R D 5423 1079 M 24 11 R 35 35 R 0 -245 R D 5645 903 M
-11 -11 R 11 -12 R 12 12 R -12 11 R D 5774 1079 M 23 11 R 35 35 R 0 -245 R D
8521 1408 M 0 212 R D 8288 1079 M 23 11 R 35 35 R 0 -245 R D 8510 903 M
-12 -11 R 12 -12 R 11 12 R -11 11 R D 8615 1067 M 0 12 R 12 23 R 11 12 R
24 11 R 46 0 R 24 -11 R 11 -12 R 12 -23 R 0 -24 R -12 -23 R -23 -35 R
-117 -117 R 164 0 R D 11386 1408 M 0 212 R D 11152 1079 M 23 11 R 35 35 R
0 -245 R D 11374 903 M -12 -11 R 12 -12 R 12 12 R -12 11 R D 11491 1125 M
128 0 R -70 -93 R 35 0 R 24 -12 R 11 -11 R 12 -35 R 0 -24 R -12 -35 R
-23 -23 R -35 -12 R -35 0 R -35 12 R -12 11 R -12 24 R D 14250 1408 M
0 212 R D 14016 1079 M 24 11 R 35 35 R 0 -245 R D 14238 903 M -12 -11 R
12 -12 R 12 12 R -12 11 R D 14448 1125 M -116 -163 R 175 0 R D 14448 1125 M
0 -245 R D 17114 1408 M 0 212 R D 16880 1079 M 24 11 R 35 35 R 0 -245 R D
17102 903 M -11 -11 R 11 -12 R 12 12 R -12 11 R D 17336 1125 M -117 0 R
-11 -105 R 11 12 R 35 12 R 35 0 R 35 -12 R 24 -23 R 11 -35 R 0 -24 R
-11 -35 R -24 -23 R -35 -12 R -35 0 R -35 12 R -11 11 R -12 24 R D
2220 1408 M 0 106 R D 2507 1408 M 0 106 R D 3079 1408 M 0 106 R D
3366 1408 M 0 106 R D 3652 1408 M 0 106 R D 3939 1408 M 0 106 R D
4225 1408 M 0 106 R D 4511 1408 M 0 106 R D 4798 1408 M 0 106 R D
5084 1408 M 0 106 R D 5371 1408 M 0 106 R D 5944 1408 M 0 106 R D
6230 1408 M 0 106 R D 6516 1408 M 0 106 R D 6803 1408 M 0 106 R D
7089 1408 M 0 106 R D 7376 1408 M 0 106 R D 7662 1408 M 0 106 R D
7949 1408 M 0 106 R D 8235 1408 M 0 106 R D 8808 1408 M 0 106 R D
9094 1408 M 0 106 R D 9381 1408 M 0 106 R D 9667 1408 M 0 106 R D
9954 1408 M 0 106 R D 10240 1408 M 0 106 R D 10526 1408 M 0 106 R D
10813 1408 M 0 106 R D 11099 1408 M 0 106 R D 11672 1408 M 0 106 R D
11958 1408 M 0 106 R D 12245 1408 M 0 106 R D 12531 1408 M 0 106 R D
12818 1408 M 0 106 R D 13104 1408 M 0 106 R D 13391 1408 M 0 106 R D
13677 1408 M 0 106 R D 13963 1408 M 0 106 R D 14536 1408 M 0 106 R D
14823 1408 M 0 106 R D 15109 1408 M 0 106 R D 15396 1408 M 0 106 R D
15682 1408 M 0 106 R D 15968 1408 M 0 106 R D 16255 1408 M 0 106 R D
16541 1408 M 0 106 R D 16828 1408 M 0 106 R D 8254 668 M 0 -246 R D
8254 668 M 82 0 R 35 -12 R 23 -23 R 12 -24 R 11 -35 R 0 -58 R -11 -35 R
-12 -23 R -23 -24 R -35 -12 R -82 0 R D 8488 668 M 11 -12 R 12 12 R -12 12 R
-11 -12 R D 8499 586 M 0 -164 R D 8710 551 M -12 23 R -35 12 R -35 0 R
-35 -12 R -12 -23 R 12 -23 R 23 -12 R 59 -12 R 23 -11 R 12 -24 R 0 -11 R
-12 -24 R -35 -12 R -35 0 R -35 12 R -12 24 R D 8803 668 M 0 -199 R 12 -35 R
23 -12 R 23 0 R D 8768 586 M 82 0 R D 9060 586 M 0 -164 R D 9060 551 M
-23 23 R -24 12 R -35 0 R -23 -12 R -23 -23 R -12 -35 R 0 -23 R 12 -35 R
23 -24 R 23 -12 R 35 0 R 24 12 R 23 24 R D 9154 586 M 0 -164 R D 9154 539 M
35 35 R 23 12 R 35 0 R 23 -12 R 12 -35 R 0 -117 R D 9504 551 M -23 23 R
-24 12 R -35 0 R -23 -12 R -23 -23 R -12 -35 R 0 -23 R 12 -35 R 23 -24 R
23 -12 R 35 0 R 24 12 R 23 24 R D 9574 516 M 140 0 R 0 23 R -11 24 R
-12 11 R -23 12 R -35 0 R -24 -12 R -23 -23 R -12 -35 R 0 -23 R 12 -35 R
23 -24 R 24 -12 R 35 0 R 23 12 R 23 24 R D 9983 668 M 0 -246 R D 9983 668 M
105 0 R 35 -12 R 12 -12 R 12 -23 R 0 -23 R -12 -24 R -12 -11 R -35 -12 R
-105 0 R D 10065 551 M 82 -129 R D 10415 715 M -210 -386 R D 10486 668 M
0 -246 R D 10486 668 M 105 0 R 35 -12 R 11 -12 R 12 -23 R 0 -23 R -12 -24 R
-11 -11 R -35 -12 R -105 0 R D 10567 551 M 82 -129 R D 10812 460 M -15 14 R
-22 7 R -29 0 R -21 -7 R -15 -14 R 0 -15 R 8 -14 R 7 -8 R 14 -7 R 44 -14 R
14 -7 R 7 -8 R 8 -14 R 0 -22 R -15 -14 R -22 -8 R -29 0 R -21 8 R -15 14 R D
10862 431 M 0 -73 R 7 -21 R 15 -8 R 22 0 R 14 8 R 22 21 R D 10942 431 M
0 -102 R D 11000 431 M 0 -102 R D 11000 402 M 21 21 R 15 8 R 21 0 R 15 -8 R
7 -21 R 0 -73 R D 2220 11996 M 14894 0 R D 2793 11996 M 0 -212 R D
5657 11996 M 0 -212 R D 8521 11996 M 0 -212 R D 11386 11996 M 0 -212 R D
14250 11996 M 0 -212 R D 17114 11996 M 0 -212 R D 2220 11996 M 0 -106 R D
2507 11996 M 0 -106 R D 3079 11996 M 0 -106 R D 3366 11996 M 0 -106 R D
3652 11996 M 0 -106 R D 3939 11996 M 0 -106 R D 4225 11996 M 0 -106 R D
4511 11996 M 0 -106 R D 4798 11996 M 0 -106 R D 5084 11996 M 0 -106 R D
5371 11996 M 0 -106 R D 5944 11996 M 0 -106 R D 6230 11996 M 0 -106 R D
6516 11996 M 0 -106 R D 6803 11996 M 0 -106 R D 7089 11996 M 0 -106 R D
7376 11996 M 0 -106 R D 7662 11996 M 0 -106 R D 7949 11996 M 0 -106 R D
8235 11996 M 0 -106 R D 8808 11996 M 0 -106 R D 9094 11996 M 0 -106 R D
9381 11996 M 0 -106 R D 9667 11996 M 0 -106 R D 9954 11996 M 0 -106 R D
10240 11996 M 0 -106 R D 10526 11996 M 0 -106 R D 10813 11996 M 0 -106 R D
11099 11996 M 0 -106 R D 11672 11996 M 0 -106 R D 11958 11996 M 0 -106 R D
12245 11996 M 0 -106 R D 12531 11996 M 0 -106 R D 12818 11996 M 0 -106 R D
13104 11996 M 0 -106 R D 13391 11996 M 0 -106 R D 13677 11996 M 0 -106 R D
13963 11996 M 0 -106 R D 14536 11996 M 0 -106 R D 14823 11996 M 0 -106 R D
15109 11996 M 0 -106 R D 15396 11996 M 0 -106 R D 15682 11996 M 0 -106 R D
15968 11996 M 0 -106 R D 16255 11996 M 0 -106 R D 16541 11996 M 0 -106 R D
16828 11996 M 0 -106 R D 2220 1408 M 0 10588 R D 2220 2374 M 298 0 R D
1367 2431 M 24 12 R 35 35 R 0 -245 R D 1636 2478 M -35 -12 R -23 -35 R
-12 -58 R 0 -35 R 12 -58 R 23 -36 R 35 -11 R 24 0 R 35 11 R 23 36 R 12 58 R
0 35 R -12 58 R -23 35 R -35 12 R -24 0 R D 1798 2476 M 130 0 R D
2080 2562 M -72 -152 R D 1979 2562 M 101 0 R D 2220 5581 M 298 0 R D
1367 5639 M 24 12 R 35 35 R 0 -246 R D 1636 5686 M -35 -12 R -23 -35 R
-12 -58 R 0 -36 R 12 -58 R 23 -35 R 35 -12 R 24 0 R 35 12 R 23 35 R 12 58 R
0 36 R -12 58 R -23 35 R -35 12 R -24 0 R D 1798 5683 M 130 0 R D
2073 5748 M -7 15 R -22 7 R -14 0 R -22 -7 R -15 -22 R -7 -36 R 0 -36 R
7 -29 R 15 -15 R 22 -7 R 7 0 R 21 7 R 15 15 R 7 21 R 0 8 R -7 21 R -15 15 R
-21 7 R -7 0 R -22 -7 R -15 -15 R -7 -21 R D 2220 8789 M 298 0 R D
1367 8846 M 24 12 R 35 35 R 0 -245 R D 1636 8893 M -35 -12 R -23 -35 R
-12 -58 R 0 -35 R 12 -58 R 23 -36 R 35 -11 R 24 0 R 35 11 R 23 36 R 12 58 R
0 35 R -12 58 R -23 35 R -35 12 R -24 0 R D 1798 8890 M 130 0 R D
2066 8977 M -73 0 R -7 -65 R 7 7 R 22 8 R 22 0 R 21 -8 R 15 -14 R 7 -22 R
0 -14 R -7 -22 R -15 -14 R -21 -8 R -22 0 R -22 8 R -7 7 R -7 14 R D
2220 11996 M 298 0 R D 1367 11948 M 24 12 R 35 35 R 0 -245 R D 1636 11995 M
-35 -12 R -23 -35 R -12 -58 R 0 -35 R 12 -59 R 23 -35 R 35 -11 R 24 0 R
35 11 R 23 35 R 12 59 R 0 35 R -12 58 R -23 35 R -35 12 R -24 0 R D
1798 11992 M 130 0 R D 2051 12079 M -72 -101 R 108 0 R D 2051 12079 M
0 -152 R D 2220 1408 M 149 0 R D 2220 1662 M 149 0 R D 2220 1877 M 149 0 R D
2220 2063 M 149 0 R D 2220 2227 M 149 0 R D 2220 3339 M 149 0 R D
2220 3904 M 149 0 R D 2220 4305 M 149 0 R D 2220 4616 M 149 0 R D
2220 4870 M 149 0 R D 2220 5084 M 149 0 R D 2220 5270 M 149 0 R D
2220 5434 M 149 0 R D 2220 6547 M 149 0 R D 2220 7111 M 149 0 R D
2220 7512 M 149 0 R D 2220 7823 M 149 0 R D 2220 8077 M 149 0 R D
2220 8292 M 149 0 R D 2220 8478 M 149 0 R D 2220 8642 M 149 0 R D
2220 9754 M 149 0 R D 2220 10319 M 149 0 R D 2220 10720 M 149 0 R D
2220 11031 M 149 0 R D 2220 11284 M 149 0 R D 2220 11499 M 149 0 R D
2220 11685 M 149 0 R D 2220 11849 M 149 0 R D 766 4775 M -24 -24 R -11 -35 R
0 -46 R 11 -35 R 24 -24 R 23 0 R 23 12 R 12 12 R 12 23 R 23 70 R 12 23 R
12 12 R 23 12 R 35 0 R 23 -24 R 12 -35 R 0 -46 R -12 -35 R -23 -24 R D
812 4857 M 257 0 R D 847 4857 M -23 23 R -12 23 R 0 35 R 12 24 R 23 23 R
36 12 R 23 0 R 35 -12 R 23 -23 R 12 -24 R 0 -35 R -12 -23 R -23 -23 R D
883 5067 M 0 140 R -24 0 R -23 -12 R -12 -11 R -12 -24 R 0 -35 R 12 -23 R
23 -23 R 36 -12 R 23 0 R 35 12 R 23 23 R 12 23 R 0 35 R -12 24 R -23 23 R D
847 5417 M -23 -23 R -12 -23 R 0 -35 R 12 -24 R 23 -23 R 36 -12 R 23 0 R
35 12 R 23 23 R 12 24 R 0 35 R -12 23 R -23 23 R D 731 5511 M 198 0 R
35 12 R 12 23 R 0 23 R D 812 5476 M 0 82 R D 812 5639 M 164 0 R D 883 5639 M
-36 12 R -23 23 R -12 24 R 0 35 R D 812 5920 M 164 0 R D 847 5920 M
-23 -24 R -12 -23 R 0 -35 R 12 -23 R 23 -24 R 36 -11 R 23 0 R 35 11 R
23 24 R 12 23 R 0 35 R -12 23 R -23 24 R D 731 6013 M 245 0 R D 731 6294 M
245 0 R D 812 6387 M 164 0 R D 859 6387 M -35 35 R -12 24 R 0 35 R 12 23 R
35 12 R 117 0 R D 731 6621 M 198 0 R 35 12 R 12 23 R 0 23 R D 812 6586 M
0 82 R D 883 6738 M 0 140 R -24 0 R -23 -12 R -12 -11 R -12 -24 R 0 -35 R
12 -23 R 23 -24 R 36 -11 R 23 0 R 35 11 R 23 24 R 12 23 R 0 35 R -12 24 R
-23 23 R D 812 6960 M 164 0 R D 859 6960 M -35 35 R -12 23 R 0 35 R 12 24 R
35 11 R 117 0 R D 847 7299 M -23 -12 R -12 -35 R 0 -35 R 12 -35 R 23 -12 R
24 12 R 12 23 R 11 58 R 12 24 R 23 12 R 12 0 R 23 -12 R 12 -35 R 0 -35 R
-12 -35 R -23 -12 R D 731 7369 M 11 11 R -11 12 R -12 -12 R 12 -11 R D
812 7380 M 164 0 R D 731 7485 M 198 0 R 35 12 R 12 24 R 0 23 R D 812 7450 M
0 82 R D 812 7591 M 164 70 R -164 70 R D 976 7661 M 58 -24 R 24 -23 R
11 -23 R 0 -12 R D 731 7988 M 245 0 R D 684 8268 M 385 -210 R D 731 8338 M
245 0 R D 939 8513 M -15 -15 R -7 -22 R 0 -29 R 7 -21 R 15 -15 R 14 0 R
15 8 R 7 7 R 7 14 R 15 44 R 7 14 R 7 7 R 15 8 R 21 0 R 15 -15 R 7 -22 R
0 -29 R -7 -21 R -15 -15 R D 968 8563 M 72 0 R 22 7 R 7 15 R 0 22 R -7 14 R
-22 22 R D 968 8643 M 101 0 R D 968 8701 M 101 0 R D 997 8701 M -22 21 R
-7 15 R 0 21 R 7 15 R 22 7 R 72 0 R D 17114 1408 M 0 10588 R D 17114 2374 M
-298 0 R D 17114 5581 M -298 0 R D 17114 8789 M -298 0 R D 17114 11996 M
-298 0 R D 17114 1408 M -149 0 R D 17114 1662 M -149 0 R D 17114 1877 M
-149 0 R D 17114 2063 M -149 0 R D 17114 2227 M -149 0 R D 17114 3339 M
-149 0 R D 17114 3904 M -149 0 R D 17114 4305 M -149 0 R D 17114 4616 M
-149 0 R D 17114 4870 M -149 0 R D 17114 5084 M -149 0 R D 17114 5270 M
-149 0 R D 17114 5434 M -149 0 R D 17114 6547 M -149 0 R D 17114 7111 M
-149 0 R D 17114 7512 M -149 0 R D 17114 7823 M -149 0 R D 17114 8077 M
-149 0 R D 17114 8292 M -149 0 R D 17114 8478 M -149 0 R D 17114 8642 M
-149 0 R D 17114 9754 M -149 0 R D 17114 10319 M -149 0 R D 17114 10720 M
-149 0 R D 17114 11031 M -149 0 R D 17114 11284 M -149 0 R D 17114 11499 M
-149 0 R D 17114 11685 M -149 0 R D 17114 11849 M -149 0 R D
0.000 0.000 0.000 setrgbcolor 2793 7048 M 286 -134 R 287 -146 R 286 -164 R
287 -137 R 286 -66 R 286 -68 R 287 -72 R 286 -76 R 287 -81 R 286 -85 R
287 -91 R 286 -61 R 286 -54 R 287 -56 R 286 -58 R 287 -61 R 286 -63 R
287 -67 R 286 -70 R 286 -73 R 287 -78 R 286 -82 R 287 -87 R 286 -94 R
287 -44 R 286 -40 R 286 -40 R 287 -43 R 286 -43 R 287 -45 R 286 -46 R
286 -48 R 287 -50 R 286 -51 R 287 -53 R 286 -56 R 287 -58 R 286 -60 R
286 -48 R 287 -44 R 286 -45 R 287 -47 R 286 -48 R 287 -50 R 286 -52 R
286 -54 R 287 -56 R 286 -59 R 287 -61 R 286 -64 R D
1.000 0.000 0.000 setrgbcolor 2793 10444 M 286 104 R 287 89 R 286 56 R
287 42 R 286 29 R 286 22 R 287 20 R 286 -4 R 287 -8 R 286 -10 R 287 -23 R
286 -41 R 286 -46 R 287 -51 R 286 -70 R 287 -73 R 286 -84 R 287 -132 R
286 -158 R 286 -173 R 287 -182 R 286 -147 R 287 -59 R 286 -17 R 287 6 R
286 7 R 286 8 R 287 11 R 286 9 R 287 0 R 286 0 R 286 0 R 287 0 R 286 0 R
287 0 R 286 0 R 287 0 R 286 0 R 286 0 R 287 0 R 286 0 R 287 0 R 286 0 R
287 0 R 286 0 R 286 0 R 287 0 R 286 0 R 287 0 R 286 0 R D
0.000 0.000 0.000 setrgbcolor 5657 9507 M 111 -111 R -111 -111 R -111 111 R
111 111 R D 0.000 0.380 1.000 setrgbcolor 2793 7036 M 1432 -716 R
1432 -711 R 1432 -710 R 1432 -701 R 1433 -681 R 1432 -652 R 1432 -617 R
1432 -578 R 694 -262 R D L2 0.000 0.000 0.000 setrgbcolor 2793 7748 M
1432 -700 R 1432 -1031 R 1432 -187 R 1432 -217 R 1433 -256 R 1432 -314 R
1432 -407 R 1432 -576 R 1432 -1002 R 1432 -239 R D L0 16448 11257 M Z
14850 11257 M 1598 0 R D 11429 11397 M 0 -246 R D 11592 11397 M -163 -164 R
D 11487 11291 M 105 -140 R D 11674 11315 M 0 -117 R 12 -35 R 23 -12 R 35 0 R
23 12 R 35 35 R D 11802 11315 M 0 -164 R D 11896 11397 M 0 -246 R D
11896 11268 M 35 35 R 23 12 R 35 0 R 24 -12 R 11 -35 R 0 -117 R D
12118 11315 M 0 -164 R D 12118 11268 M 35 35 R 23 12 R 35 0 R 24 -12 R
11 -35 R 0 -117 R D 12515 11245 M 140 0 R 0 23 R -11 23 R -12 12 R -23 12 R
-35 0 R -24 -12 R -23 -23 R -12 -35 R 0 -24 R 12 -35 R 23 -23 R 24 -12 R
35 0 R 23 12 R 23 23 R D 12749 11397 M 0 -199 R 12 -35 R 23 -12 R 23 0 R D
12714 11315 M 82 0 R D 13193 11315 M 0 -164 R D 13193 11280 M -23 23 R
-24 12 R -35 0 R -23 -12 R -24 -23 R -11 -35 R 0 -24 R 11 -35 R 24 -23 R
23 -12 R 35 0 R 24 12 R 23 23 R D 13286 11397 M 0 -246 R D 13392 11175 M
-12 -12 R 12 -12 R 11 12 R -11 12 R D 13707 11350 M 23 12 R 35 35 R 0 -246 R
D 14058 11315 M -12 -35 R -24 -24 R -35 -11 R -11 0 R -35 11 R -24 24 R
-11 35 R 0 12 R 11 35 R 24 23 R 35 12 R 11 0 R 35 -12 R 24 -23 R 12 -47 R
0 -59 R -12 -58 R -24 -35 R -35 -12 R -23 0 R -35 12 R -12 23 R D
14291 11315 M -12 -35 R -23 -24 R -35 -11 R -12 0 R -35 11 R -23 24 R
-12 35 R 0 12 R 12 35 R 23 23 R 35 12 R 12 0 R 35 -12 R 23 -23 R 12 -47 R
0 -59 R -12 -58 R -23 -35 R -35 -12 R -23 0 R -35 12 R -12 23 R D
14525 11362 M -12 23 R -35 12 R -23 0 R -35 -12 R -24 -35 R -11 -59 R
0 -58 R 11 -47 R 24 -23 R 35 -12 R 11 0 R 35 12 R 24 23 R 12 35 R 0 12 R
-12 35 R -24 23 R -35 12 R -11 0 R -35 -12 R -24 -23 R -11 -35 R D
1.000 0.000 0.000 setrgbcolor 16448 10834 M Z 14850 10834 M 1598 0 R D
0.000 0.000 0.000 setrgbcolor 11008 10974 M 0 -245 R D 11008 10974 M 105 0 R
35 -11 R 12 -12 R 12 -24 R 0 -35 R -12 -23 R -12 -12 R -35 -11 R -105 0 R D
11242 10822 M 140 0 R 0 24 R -12 23 R -12 12 R -23 11 R -35 0 R -23 -11 R
-24 -24 R -11 -35 R 0 -23 R 11 -35 R 24 -23 R 23 -12 R 35 0 R 23 12 R
24 23 R D 11464 10892 M 0 -163 R D 11464 10846 M 35 35 R 23 11 R 35 0 R
23 -11 R 12 -35 R 0 -117 R D 11686 10892 M 0 -163 R D 11686 10846 M 35 35 R
23 11 R 35 0 R 23 -11 R 12 -35 R 0 -117 R D 12317 10869 M 0 12 R -12 11 R
-12 0 R -12 -11 R -11 -24 R -24 -58 R -23 -35 R -23 -23 R -24 -12 R -46 0 R
-24 12 R -11 11 R -12 24 R 0 23 R 12 23 R 11 12 R 82 47 R 12 11 R 11 24 R
0 23 R -11 24 R -24 11 R -23 -11 R -12 -24 R 0 -23 R 12 -35 R 23 -35 R
59 -82 R 23 -23 R 23 -12 R 24 0 R 12 12 R 0 11 R D 12585 10974 M 0 -245 R D
12749 10974 M -164 -163 R D 12644 10869 M 105 -140 R D 12831 10892 M
0 -116 R 11 -35 R 24 -12 R 35 0 R 23 12 R 35 35 R D 12959 10892 M 0 -163 R D
13053 10974 M 0 -245 R D 13053 10846 M 35 35 R 23 11 R 35 0 R 23 -11 R
12 -35 R 0 -117 R D 13275 10892 M 0 -163 R D 13275 10846 M 35 35 R 23 11 R
35 0 R 24 -11 R 11 -35 R 0 -117 R D 13707 10927 M 23 12 R 35 35 R 0 -245 R D
14058 10892 M -12 -35 R -24 -23 R -35 -12 R -11 0 R -35 12 R -24 23 R
-11 35 R 0 12 R 11 35 R 24 24 R 35 11 R 11 0 R 35 -11 R 24 -24 R 12 -47 R
0 -58 R -12 -58 R -24 -35 R -35 -12 R -23 0 R -35 12 R -12 23 R D
14291 10892 M -12 -35 R -23 -23 R -35 -12 R -12 0 R -35 12 R -23 23 R
-12 35 R 0 12 R 12 35 R 23 24 R 35 11 R 12 0 R 35 -11 R 23 -24 R 12 -47 R
0 -58 R -12 -58 R -23 -35 R -35 -12 R -23 0 R -35 12 R -12 23 R D
14490 10974 M -117 -163 R 175 0 R D 14490 10974 M 0 -245 R D 15649 10523 M
111 -111 R -111 -111 R -111 111 R 111 111 R D 12527 10552 M 0 -187 R
-12 -35 R -11 -12 R -24 -12 R -23 0 R -24 12 R -11 12 R -12 35 R 0 23 R D
12620 10470 M 0 -117 R 12 -35 R 23 -12 R 35 0 R 24 12 R 35 35 R D
12749 10470 M 0 -164 R D 12971 10552 M 0 -246 R D 12971 10435 M -24 23 R
-23 12 R -35 0 R -23 -12 R -24 -23 R -11 -35 R 0 -23 R 11 -35 R 24 -24 R
23 -12 R 35 0 R 23 12 R 24 24 R D 13193 10470 M 0 -199 R -12 -35 R -11 -11 R
-24 -12 R -35 0 R -23 12 R D 13193 10435 M -23 23 R -24 12 R -35 0 R
-23 -12 R -24 -23 R -11 -35 R 0 -23 R 11 -35 R 24 -24 R 23 -12 R 35 0 R
24 12 R 23 24 R D 13275 10400 M 140 0 R 0 23 R -12 24 R -11 11 R -24 12 R
-35 0 R -23 -12 R -24 -23 R -11 -35 R 0 -23 R 11 -35 R 24 -24 R 23 -12 R
35 0 R 24 12 R 23 24 R D 13707 10505 M 23 12 R 35 35 R 0 -246 R D
14058 10470 M -12 -35 R -24 -23 R -35 -12 R -11 0 R -35 12 R -24 23 R
-11 35 R 0 12 R 11 35 R 24 23 R 35 12 R 11 0 R 35 -12 R 24 -23 R 12 -47 R
0 -58 R -12 -59 R -24 -35 R -35 -12 R -23 0 R -35 12 R -12 24 R D
14291 10470 M -12 -35 R -23 -23 R -35 -12 R -12 0 R -35 12 R -23 23 R
-12 35 R 0 12 R 12 35 R 23 23 R 35 12 R 12 0 R 35 -12 R 23 -23 R 12 -47 R
0 -58 R -12 -59 R -23 -35 R -35 -12 R -23 0 R -35 12 R -12 24 R D
14431 10552 M -35 -12 R -11 -23 R 0 -24 R 11 -23 R 24 -12 R 46 -11 R
35 -12 R 24 -23 R 12 -24 R 0 -35 R -12 -23 R -12 -12 R -35 -12 R -47 0 R
-35 12 R -11 12 R -12 23 R 0 35 R 12 24 R 23 23 R 35 12 R 47 11 R 23 12 R
12 23 R 0 24 R -12 23 R -35 12 R -47 0 R D 0.000 0.380 1.000 setrgbcolor
16448 9990 M Z 14850 9990 M 1598 0 R D 0.000 0.000 0.000 setrgbcolor
11732 10129 M 0 -245 R D 11896 10129 M 0 -245 R D 11732 10013 M 164 0 R D
12118 10048 M 0 -164 R D 12118 10013 M -23 23 R -24 12 R -35 0 R -23 -12 R
-24 -23 R -11 -35 R 0 -24 R 11 -35 R 24 -23 R 23 -12 R 35 0 R 24 12 R
23 23 R D 12211 10129 M 0 -245 R D 12211 10001 M 35 35 R 24 12 R 35 0 R
23 -12 R 12 -35 R 0 -117 R D 12433 10048 M 0 -164 R D 12433 10001 M 35 35 R
24 12 R 35 0 R 23 -12 R 12 -35 R 0 -117 R D 12901 10129 M -24 -11 R
-23 -24 R -12 -23 R -11 -35 R 0 -58 R 11 -36 R 12 -23 R 23 -23 R 24 -12 R
46 0 R 24 12 R 23 23 R 12 23 R 12 36 R 0 58 R -12 35 R -12 23 R -23 24 R
-24 11 R -46 0 R D 12936 9931 M 70 -82 R D 13251 10094 M -23 24 R -35 11 R
-47 0 R -35 -11 R -23 -24 R 0 -23 R 11 -23 R 12 -12 R 23 -12 R 71 -23 R
23 -12 R 12 -11 R 11 -24 R 0 -35 R -23 -23 R -35 -12 R -47 0 R -35 12 R
-23 23 R D 13520 10048 M 0 -164 R D 13520 10001 M 35 35 R 23 12 R 35 0 R
24 -12 R 12 -35 R 0 -117 R D 13649 10001 M 35 35 R 23 12 R 35 0 R 23 -12 R
12 -35 R 0 -117 R D 13917 10048 M -23 -12 R -23 -23 R -12 -35 R 0 -24 R
12 -35 R 23 -23 R 23 -12 R 35 0 R 24 12 R 23 23 R 12 35 R 0 24 R -12 35 R
-23 23 R -24 12 R -35 0 R D 14221 10129 M 0 -245 R D 14221 10013 M -23 23 R
-24 12 R -35 0 R -23 -12 R -23 -23 R -12 -35 R 0 -24 R 12 -35 R 23 -23 R
23 -12 R 35 0 R 24 12 R 23 23 R D 14303 9978 M 140 0 R 0 23 R -12 23 R
-11 12 R -24 12 R -35 0 R -23 -12 R -23 -23 R -12 -35 R 0 -24 R 12 -35 R
23 -23 R 23 -12 R 35 0 R 24 12 R 23 23 R D 14525 10129 M 0 -245 R D
10587 9707 M 0 -245 R D 10751 9707 M -164 -164 R D 10646 9602 M 105 -140 R D
10821 9707 M 12 -12 R 11 12 R -11 12 R -12 -12 R D 10833 9625 M 0 -163 R D
10926 9625 M 0 -163 R D 10926 9579 M 35 35 R 24 11 R 35 0 R 23 -11 R
12 -35 R 0 -117 R D 11055 9579 M 35 35 R 23 11 R 35 0 R 24 -11 R 11 -35 R
0 -117 R D 11277 9625 M 0 -117 R 11 -35 R 24 -11 R 35 0 R 23 11 R 35 35 R D
11405 9625 M 0 -163 R D 11499 9625 M 0 -163 R D 11499 9555 M 11 35 R 24 24 R
23 11 R 35 0 R D 11779 9625 M 0 -163 R D 11779 9590 M -23 24 R -24 11 R
-35 0 R -23 -11 R -23 -24 R -12 -35 R 0 -23 R 12 -35 R 23 -24 R 23 -11 R
35 0 R 24 11 R 23 24 R D 12282 9602 M 0 12 R -12 11 R -12 0 R -12 -11 R
-11 -24 R -24 -58 R -23 -35 R -23 -24 R -24 -11 R -46 0 R -24 11 R -12 12 R
-11 23 R 0 24 R 11 23 R 12 12 R 82 47 R 12 11 R 11 24 R 0 23 R -11 23 R
-24 12 R -23 -12 R -12 -23 R 0 -23 R 12 -35 R 23 -35 R 59 -82 R 23 -24 R
23 -11 R 24 0 R 12 11 R 0 12 R D 12550 9707 M 0 -245 R D 12550 9707 M
94 -245 R 93 245 R 0 -245 R D 12959 9625 M 0 -163 R D 12959 9590 M -23 24 R
-24 11 R -35 0 R -23 -11 R -23 -24 R -12 -35 R 0 -23 R 12 -35 R 23 -24 R
23 -11 R 35 0 R 24 11 R 23 24 R D 13053 9625 M 0 -163 R D 13053 9579 M
35 35 R 23 11 R 35 0 R 24 -11 R 11 -35 R 0 -117 R D 13275 9625 M 0 -163 R D
13275 9579 M 35 35 R 23 11 R 35 0 R 24 -11 R 11 -35 R 0 -117 R D
13707 9660 M 23 12 R 35 35 R 0 -245 R D 14058 9625 M -12 -35 R -24 -23 R
-35 -12 R -11 0 R -35 12 R -24 23 R -11 35 R 0 12 R 11 35 R 24 23 R 35 12 R
11 0 R 35 -12 R 24 -23 R 12 -47 R 0 -58 R -12 -59 R -24 -35 R -35 -11 R
-23 0 R -35 11 R -12 24 R D 14291 9625 M -12 -35 R -23 -23 R -35 -12 R
-12 0 R -35 12 R -23 23 R -12 35 R 0 12 R 12 35 R 23 23 R 35 12 R 12 0 R
35 -12 R 23 -23 R 12 -47 R 0 -58 R -12 -59 R -23 -35 R -35 -11 R -23 0 R
-35 11 R -12 24 R D 14431 9707 M -35 -12 R -11 -23 R 0 -23 R 11 -24 R
24 -11 R 46 -12 R 35 -12 R 24 -23 R 12 -24 R 0 -35 R -12 -23 R -12 -12 R
-35 -11 R -47 0 R -35 11 R -11 12 R -12 23 R 0 35 R 12 24 R 23 23 R 35 12 R
47 12 R 23 11 R 12 24 R 0 23 R -12 23 R -35 12 R -47 0 R D 16448 9145 M Z
14850 9145 M Z L2 16448 9145 M -1598 0 R D L0 11277 9226 M -12 24 R -23 23 R
-24 12 R -46 0 R -24 -12 R -23 -23 R -12 -24 R -12 -35 R 0 -58 R 12 -35 R
12 -24 R 23 -23 R 24 -12 R 46 0 R 24 12 R 23 23 R 12 24 R D 11405 9203 M
-23 -12 R -24 -23 R -11 -35 R 0 -24 R 11 -35 R 24 -23 R 23 -12 R 35 0 R
24 12 R 23 23 R 12 35 R 0 24 R -12 35 R -23 23 R -24 12 R -35 0 R D
11580 9203 M 0 -164 R D 11580 9133 M 12 35 R 24 23 R 23 12 R 35 0 R D
11779 9203 M -23 -12 R -24 -23 R -11 -35 R 0 -24 R 11 -35 R 24 -23 R
23 -12 R 35 0 R 24 12 R 23 23 R 12 35 R 0 24 R -12 35 R -23 23 R -24 12 R
-35 0 R D 11954 9203 M 0 -164 R D 11954 9156 M 35 35 R 24 12 R 35 0 R
23 -12 R 12 -35 R 0 -117 R D 12305 9203 M 0 -164 R D 12305 9168 M -24 23 R
-23 12 R -35 0 R -23 -12 R -24 -23 R -11 -35 R 0 -24 R 11 -35 R 24 -23 R
23 -12 R 35 0 R 23 12 R 24 23 R D 12398 9285 M 0 -246 R D 12842 9226 M
-11 24 R -24 23 R -23 12 R -47 0 R -23 -12 R -24 -23 R -11 -24 R -12 -35 R
0 -58 R 12 -35 R 11 -24 R 24 -23 R 23 -12 R 47 0 R 23 12 R 24 23 R 11 24 R D
12971 9203 M -24 -12 R -23 -23 R -12 -35 R 0 -24 R 12 -35 R 23 -23 R
24 -12 R 35 0 R 23 12 R 24 23 R 11 35 R 0 24 R -11 35 R -24 23 R -23 12 R
-35 0 R D 13146 9203 M 0 -164 R D 13146 9156 M 35 35 R 24 12 R 35 0 R
23 -12 R 12 -35 R 0 -117 R D 13380 9285 M 0 -199 R 12 -35 R 23 -12 R 23 0 R
D 13345 9203 M 82 0 R D 13497 9285 M 11 -12 R 12 12 R -12 11 R -11 -11 R D
13508 9203 M 0 -164 R D 13602 9203 M 0 -164 R D 13602 9156 M 35 35 R 23 12 R
35 0 R 24 -12 R 11 -35 R 0 -117 R D 13824 9203 M 0 -117 R 12 -35 R 23 -12 R
35 0 R 23 12 R 35 35 R D 13952 9203 M 0 -164 R D 14046 9203 M 0 -117 R
12 -35 R 23 -12 R 35 0 R 23 12 R 35 35 R D 14174 9203 M 0 -164 R D
14268 9203 M 0 -164 R D 14268 9156 M 35 35 R 23 12 R 35 0 R 24 -12 R
11 -35 R 0 -117 R D 14396 9156 M 35 35 R 24 12 R 35 0 R 23 -12 R 12 -35 R
0 -117 R D 16848 11574 M -6429 0 R 0 -2746 R 6429 0 R 0 2746 R -6429 0 R D
%%PageTrailer
end
%%PageResources: font Helvetica
%%Trailer
%%Pages: 1
%%DocumentNeededResources: font Helvetica
%%EOF
